{
    "custom_post_types": {
        "lily-development": {
            "labels": {
                "singular_name": "Lily Development Listing"
            },
            "args": {
                "public": true,
                "exclude_from_search": false,
                "publicly_queryable": true,
                "show_ui": true,
                "show_in_nav_menus": true,
                "show_in_menu": true,
                "show_in_admin_bar": true,
                "hierarchical": false,
                "has_archive": false,
                "rewrite": true,
                "can_export": true,
                "show_in_rest": false,
                "supports": [
                    "title",
                    "editor",
                    "thumbnail",
                    "excerpt"
                ],
                "menu_position": 25,
                "menu_icon": "dashicons-admin-multisite"
            },
            "extras": {}
        }
    },
    "taxonomies": {
        "lily-development-listing-type": {
            "post_types": [
                "lily-development"
            ],
            "labels": {
                "singular_name": "Lily Development Listing Type"
            },
            "args": {
                "public": true,
                "show_ui": true,
                "show_in_menu": true,
                "show_in_nav_menus": false,
                "show_tagcloud": false,
                "show_in_quick_edit": true,
                "hierarchical": false,
                "rewrite": false,
                "show_admin_column": true,
                "meta_box_cb": false
            }
        }
    }
}
